^C:\USERS\USER1\DOCUMENTS\VISUAL STUDIO 2015\PROJECTS\TASK_A6\TASK_A6\DEBUG\SOURCE.OBJ
C:\USERS\USER1\DOCUMENTS\VISUAL STUDIO 2015\PROJECTS\TASK_A6\DEBUG\TASK_A6.ILK
C:\USERS\USER1\DOCUMENTS\VISUAL STUDIO 2015\PROJECTS\TASK_A6\DEBUG\TASK_A6.EXE
C:\USERS\USER1\DOCUMENTS\VISUAL STUDIO 2015\PROJECTS\TASK_A6\DEBUG\TASK_A6.PDB
