^C:\USERS\USER1\DOCUMENTS\VISUAL STUDIO 2015\PROJECTS\TASK_A4\TASK_A4\DEBUG\TASK_A4.OBJ
C:\USERS\USER1\DOCUMENTS\VISUAL STUDIO 2015\PROJECTS\TASK_A4\DEBUG\TASK_A4.ILK
C:\USERS\USER1\DOCUMENTS\VISUAL STUDIO 2015\PROJECTS\TASK_A4\DEBUG\TASK_A4.EXE
C:\USERS\USER1\DOCUMENTS\VISUAL STUDIO 2015\PROJECTS\TASK_A4\DEBUG\TASK_A4.PDB
